signal.csv

Memory Length,4000
Trigger Level,-75.2
Source,CH1
Probe,1.0X
Vertical Units,V
Vertical Scale,0.02
Vertical Position,0.0608
Horizontal Units,S
Horizontal Scale,2.5E-07
Horizontal Position,0
Horizontal Mode,Main
Sampling Period,1E-09
Firmware,V1.04
Time
Mode,Fast
Waveform Data
-3
-3
-3
-3
-4
-4
-2
-2
-3
-3
-2
-2
-3
-3
-3
-3
-3
-3
-3
-2
-2
-2
-2
-2
-4
-4
-3
-3
-2
-2
-1
-1
-3
-3
-3
-3
-3
-3
-1
-1
-3
-3
-2
-2
-3
-4
-2
-2
-3
-3
-2
-3
-2
-2
-2
-2
-3
-3
-3
-3
-3
-3
-1
-1
-3
-3
-3
-3
-3
-3
-1
-1
-3
-4
-2
-2
-3
-3
-3
-3
-4
-4
-3
-2
-3
-3
-2
-2
-4
-4
-4
-3
-2
-2
-1
-1
-3
-4
-4
-4
-3
-3
-1
-1
-2
-3
-3
-3
-3
-3
-2
-2
-3
-3
-2
-2
-3
-3
-3
-3
-3
-3
-2
-2
-3
-3
-2
-2
-4
-4
-3
-3
-2
-2
-2
-2
-4
-5
-3
-3
-3
-2
-1
-1
-3
-4
-4
-4
-4
-4
-2
-2
-3
-3
-3
-3
-3
-3
-3
-3
-3
-3
-2
-3
-4
-4
-3
-3
-4
-4
-3
-2
-2
-2
-2
-2
-4
-4
-3
-3
-2
-2
-2
-2
-4
-4
-3
-3
-3
-3
-2
-1
-3
-3
-3
-3
-2
-2
-2
-2
-3
-3
-2
-2
-3
-3
-2
-2
-4
-4
-3
-3
-3
-3
-1
-1
-3
-3
-3
-3
-3
-3
-2
-2
-3
-4
-4
-4
-3
-3
-1
-1
-3
-3
-3
-3
-3
-4
-3
-3
-4
-4
-2
-2
-3
-3
-2
-2
-4
-4
-3
-3
-2
-2
-1
-1
-4
-4
-3
-3
-2
-2
-2
-2
-3
-3
-4
-4
-4
-4
-2
-2
-4
-4
-3
-3
-3
-3
-2
-2
-3
-3
-3
-2
-3
-3
-2
-2
-3
-3
-3
-3
-2
-2
-2
-2
-4
-4
-3
-3
-2
-2
-2
-2
-4
-4
-3
-2
-2
-2
-2
-2
-3
-3
-2
-3
-3
-3
-2
-2
-3
-3
-4
-3
-3
-4
-2
-2
-3
-3
-2
-2
-3
-3
-2
-2
-3
-3
-3
-3
-3
-3
-2
-3
-3
-3
-2
-2
-3
-4
-2
-2
-3
-3
-1
-1
-2
-1
-2
-2
-4
-4
-2
-2
-2
-2
-1
-1
-3
-4
-3
-3
-2
-2
-1
-1
-3
-2
-2
-3
-4
-4
-3
-3
-3
-3
-2
-2
-3
-3
-3
-3
-4
-4
-3
-2
-2
-2
-2
-3
-4
-4
-3
-3
-3
-3
-1
-1
-3
-3
-2
-2
-3
-2
-2
-2
-3
-4
-3
-3
-3
-3
-2
-2
-4
-4
-2
-2
-2
-2
-2
-2
-3
-3
-3
-2
-2
-2
-1
-1
-4
-5
-3
-4
-4
-4
-2
-2
-3
-3
-2
-2
-3
-3
-2
-2
-3
-3
-2
-3
-3
-3
-2
-3
-3
-3
-3
-2
-2
-2
-2
-2
-4
-4
-3
-3
-2
-2
-2
-2
-4
-4
-3
-3
-3
-3
-2
-2
-3
-3
-3
-3
-4
-4
-2
-2
-3
-3
-3
-3
-3
-4
-2
-2
-3
-3
-3
-3
-3
-3
-1
-1
-3
-3
-3
-2
-2
-2
-2
-2
-4
-4
-2
-2
-2
-2
-2
-2
-4
-4
-3
-3
-2
-2
-1
-1
-3
-3
-2
-2
-3
-3
-2
-2
-3
-4
-4
-3
-3
-3
-2
-2
-3
-3
-3
-3
-3
-3
-1
-1
-3
-3
-3
-3
-3
-3
-1
-1
-3
-3
-3
-3
-3
-3
-2
-2
-3
-3
-3
-3
-3
-3
-2
-2
-4
-4
-2
-2
-2
-2
-2
-2
-4
-4
-3
-4
-2
-2
-2
-2
-4
-4
-4
-4
-3
-3
-1
-1
-3
-3
-2
-2
-3
-3
-2
-2
-3
-3
-2
-2
-3
-3
-3
-3
-3
-3
-3
-2
-3
-3
-2
-2
-4
-4
-3
-3
-2
-2
-2
-2
-4
-4
-4
-4
-3
-3
-1
-1
-3
-3
-3
-3
-3
-3
-2
-2
-3
-3
-3
-3
-2
-2
-2
-2
-3
-3
-3
-2
-3
-3
-2
-2
-3
-3
-2
-2
-3
-4
-3
-3
-4
-4
-3
-3
-3
-4
-3
-3
-4
-4
-3
-3
-2
-2
-2
-2
-4
-3
-2
-3
-2
-2
-2
-2
-4
-4
-3
-3
-3
-2
-1
-1
-3
-3
-3
-3
-4
-4
-2
-2
-3
-3
-2
-2
-3
-3
-2
-2
-4
-4
-3
-2
-2
-2
-2
-2
-4
-4
-3
-3
-3
-2
-1
-1
-4
-4
-4
-4
-2
-2
-2
-2
-4
-5
-3
-3
-3
-4
-2
-2
-3
-3
-3
-3
-3
-3
-1
-1
-3
-3
-2
-2
-3
-3
-1
-1
-3
-3
-3
-3
-3
-3
-3
-3
-4
-3
-2
-3
-2
-2
-2
-2
-4
-4
-3
-3
-2
-2
-2
-2
-4
-5
-4
-4
-3
-3
-2
-2
-3
-3
-3
-3
-3
-3
-1
-1
-3
-3
-3
-3
-4
-4
-2
-1
-3
-3
-3
-2
-3
-3
-3
-3
-3
-3
-2
-2
-2
-2
-3
-3
-4
-4
-3
-3
-3
-3
-1
-1
-4
-5
-4
-4
-2
-2
-2
-2
-3
-4
-3
-3
-4
-4
-2
-2
-3
-3
-3
-3
-3
-3
-1
-1
-3
-3
-2
-3
-4
-4
-2
-2
-3
-3
-3
-2
-2
-2
-2
-3
-4
-4
-3
-3
-2
-1
-1
-1
-4
-5
-3
-3
-3
-2
-1
-1
-3
-3
-4
-4
-3
-3
-2
-2
-4
-4
-2
-2
-3
-4
-3
-3
-3
-3
-3
-3
-2
-2
-2
-2
-4
-4
-3
-3
-2
-2
-2
-2
-4
-4
-3
-3
-2
-2
-2
-2
-4
-4
-3
-3
-3
-3
-2
-2
-3
-3
-2
-3
-3
-3
-2
-2
-3
-3
-3
-2
-2
-2
-2
-2
-4
-4
-2
-2
-2
-2
-2
-2
-4
-4
-3
-3
-2
-2
-1
-1
-3
-3
-3
-3
-3
-3
-1
-1
-3
-3
-2
-2
-4
-4
-3
-2
-3
-3
-3
-2
-3
-3
-3
-3
-4
-4
-3
-3
-3
-3
-2
-2
-4
-4
-3
-3
-2
-2
-1
-1
-4
-4
-3
-3
-3
-4
-2
-2
-3
-4
-3
-3
-4
-4
-2
-2
-3
-3
-2
-3
-3
-3
-2
-2
-3
-3
-2
-3
-3
-3
-2
-2
-4
-4
-3
-3
-2
-2
-2
-3
-4
-5
-3
-3
-2
-2
-1
-1
-3
-4
-3
-3
-3
-3
-2
-1
-3
-3
-2
-3
-3
-3
-2
-2
-3
-3
-3
-2
-3
-3
-2
-2
-3
-3
-3
-3
-2
-2
-3
-3
-4
-4
-2
-2
-2
-2
-2
-2
-4
-4
-3
-3
-2
-2
-1
-1
-3
-4
-4
-3
-3
-4
-2
-2
-3
-3
-3
-3
-4
-4
-2
-2
-3
-3
-3
-3
-3
-3
-2
-2
-3
-4
-4
-3
-3
-3
-2
-1
-3
-3
-2
-3
-2
-2
-2
-2
-4
-4
-3
-3
-2
-2
-2
-2
-4
-4
-3
-3
-2
-2
-2
-2
-4
-3
-3
-3
-3
-3
-1
-1
-3
-3
-4
-4
-4
-4
-2
-2
-3
-3
-2
-3
-3
-3
-2
-2
-4
-4
-4
-3
-3
-3
-2
-2
-4
-4
-3
-3
-2
-2
-2
-2
-3
-4
-4
-4
-2
-2
-2
-2
-4
-4
-3
-3
-3
-3
-2
-2
-4
-4
-2
-2
-2
-2
-2
-2
-4
-3
-4
-3
-2
-2
-2
-2
-4
-4
-3
-3
-3
-3
-2
-2
-3
-3
-3
-3
-4
-4
-2
-2
-3
-3
-2
-2
-3
-4
-2
-2
-3
-3
-2
-2
-3
-3
-3
-3
-4
-4
-3
-3
-2
-2
-2
-2
-4
-5
-3
-3
-2
-1
-1
-1
-3
-4
-4
-4
-4
-4
-1
-1
-3
-3
-3
-3
-4
-4
-3
-3
-3
-3
-2
-3
-3
-3
-2
-2
-4
-4
-3
-2
-2
-1
-2
-2
-4
-4
-3
-3
-2
-2
-2
-2
-3
-3
-3
-3
-3
-2
-1
-1
-3
-3
-3
-3
-3
-3
-2
-2
-3
-3
-2
-3
-3
-3
-2
-2
-3
-4
-3
-2
-3
-4
-2
-2
-3
-3
-2
-2
-3
-3
-3
-3
-4
-4
-3
-3
-2
-2
-1
-1
-3
-3
-3
-4
-2
-2
-2
-2
-4
-4
-3
-3
-3
-3
-2
-2
-4
-4
-3
-2
-3
-3
-2
-2
-4
-4
-3
-3
-3
-3
-1
-1
-3
-3
-3
-3
-3
-4
-2
-2
-3
-3
-3
-3
-3
-3
-3
-3
-4
-5
-3
-2
-3
-3
-2
-2
-3
-4
-4
-3
-3
-3
-1
-1
-3
-3
-3
-3
-2
-2
-2
-2
-3
-3
-2
-3
-2
-2
-2
-2
-3
-3
-3
-3
-3
-2
-2
-2
-4
-4
-3
-2
-2
-2
-2
-2
-4
-4
-4
-4
-3
-3
-2
-2
-3
-3
-3
-3
-3
-2
-2
-2
-3
-4
-4
-3
-3
-3
-2
-2
-4
-4
-3
-3
-3
-3
-1
-1
-3
-3
-3
-3
-3
-3
-2
-2
-3
-3
-2
-2
-3
-3
-2
-2
-3
-3
-2
-2
-3
-3
-3
-3
-4
-4
-3
-2
-2
-2
-2
-2
-4
-4
-4
-4
-2
-2
-1
-1
-3
-3
-4
-4
-4
-4
-2
-1
-3
-3
-2
-2
-3
-3
-2
-2
-3
-3
-3
-3
-2
-2
-2
-2
-4
-4
-3
-2
-3
-3
-3
-3
-4
-4
-3
-3
-2
-2
-2
-2
-3
-4
-3
-3
-3
-3
-1
-1
-3
-3
-3
-4
-4
-4
-1
-1
-3
-3
-3
-2
-3
-4
-3
-3
-3
-3
-3
-3
-3
-3
-2
-2
-4
-4
-4
-3
-2
-2
-1
-1
-3
-4
-3
-3
-3
-3
-2
-2
-3
-3
-3
-3
-4
-4
-2
-2
-3
-3
-2
-2
-3
-3
-2
-2
-3
-3
-3
-3
-3
-3
-2
-2
-4
-4
-3
-4
-2
-2
-2
-2
-3
-4
-3
-3
-2
-2
-1
-1
-3
-3
-3
-3
-4
-4
-2
-2
-3
-4
-3
-3
-3
-3
-2
-2
-3
-3
-2
-3
-3
-3
-2
-2
-3
-3
-3
-3
-4
-4
-3
-3
-4
-5
-4
-4
-4
-4
-5
-5
-7
-8
-8
-8
-9
-9
-10
-10
-13
-13
-14
-14
-15
-15
-16
-17
-20
-21
-21
-21
-22
-22
-24
-25
-28
-28
-30
-30
-30
-30
-31
-31
-35
-36
-36
-36
-38
-38
-39
-39
-42
-42
-43
-43
-46
-46
-46
-47
-49
-50
-51
-51
-51
-52
-53
-53
-56
-56
-58
-58
-59
-59
-58
-59
-62
-63
-64
-64
-63
-63
-64
-64
-67
-67
-68
-68
-70
-70
-70
-70
-72
-73
-73
-73
-74
-74
-75
-75
-77
-77
-78
-78
-78
-78
-79
-80
-81
-81
-82
-82
-82
-82
-82
-82
-85
-86
-85
-85
-86
-86
-86
-87
-89
-89
-90
-91
-90
-90
-90
-90
-93
-93
-93
-93
-93
-93
-93
-93
-95
-95
-96
-96
-96
-97
-96
-95
-97
-97
-98
-98
-98
-98
-98
-99
-101
-101
-100
-100
-100
-100
-100
-100
-101
-101
-102
-102
-101
-101
-101
-101
-103
-103
-103
-103
-103
-103
-103
-103
-103
-103
-104
-103
-103
-103
-104
-104
-105
-104
-104
-104
-105
-104
-104
-104
-106
-106
-106
-105
-105
-105
-105
-105
-107
-106
-106
-106
-106
-106
-106
-106
-107
-107
-107
-107
-106
-105
-107
-107
-108
-107
-107
-106
-106
-106
-106
-106
-108
-107
-107
-107
-106
-106
-105
-105
-106
-106
-107
-107
-106
-105
-105
-105
-105
-105
-105
-105
-105
-105
-105
-105
-105
-105
-104
-104
-104
-104
-104
-104
-104
-104
-104
-103
-102
-102
-102
-102
-103
-103
-103
-103
-102
-101
-101
-101
-102
-102
-101
-100
-101
-101
-100
-100
-101
-101
-100
-100
-100
-100
-99
-99
-100
-100
-99
-98
-98
-98
-97
-97
-99
-99
-98
-99
-97
-97
-97
-97
-97
-97
-97
-97
-96
-96
-95
-95
-95
-95
-95
-94
-95
-95
-93
-93
-94
-93
-94
-94
-92
-92
-92
-92
-93
-92
-91
-91
-91
-91
-90
-90
-91
-91
-89
-89
-89
-89
-87
-87
-89
-89
-88
-88
-88
-88
-85
-85
-87
-87
-86
-85
-85
-85
-85
-85
-85
-85
-84
-84
-85
-84
-82
-82
-84
-83
-84
-84
-82
-82
-82
-82
-82
-82
-81
-80
-80
-80
-79
-79
-81
-81
-79
-78
-78
-78
-77
-77
-79
-78
-77
-77
-77
-77
-75
-75
-77
-77
-77
-76
-76
-76
-74
-73
-74
-74
-74
-74
-74
-74
-73
-73
-73
-73
-72
-71
-72
-72
-71
-71
-71
-71
-69
-69
-69
-68
-69
-69
-69
-69
-69
-69
-68
-67
-66
-66
-68
-68
-67
-66
-66
-66
-65
-65
-66
-65
-66
-65
-65
-64
-62
-62
-64
-65
-64
-64
-64
-63
-62
-62
-63
-62
-62
-62
-61
-61
-61
-61
-61
-62
-61
-60
-60
-60
-59
-59
-60
-59
-59
-59
-58
-58
-58
-58
-58
-59
-57
-57
-56
-56
-55
-55
-57
-57
-56
-56
-56
-56
-54
-54
-55
-55
-55
-55
-55
-54
-53
-53
-53
-53
-54
-54
-52
-52
-52
-52
-53
-52
-52
-52
-52
-52
-50
-50
-52
-52
-50
-50
-49
-50
-49
-49
-50
-50
-48
-48
-48
-47
-47
-47
-49
-49
-47
-47
-46
-46
-46
-46
-47
-47
-45
-45
-46
-45
-45
-45
-46
-46
-45
-45
-44
-44
-43
-43
-44
-44
-45
-44
-43
-42
-41
-41
-42
-43
-42
-42
-42
-42
-41
-41
-41
-41
-41
-40
-41
-41
-41
-41
-41
-41
-40
-40
-40
-39
-39
-39
-41
-41
-40
-40
-38
-38
-38
-38
-39
-39
-39
-38
-37
-37
-36
-36
-38
-37
-37
-37
-36
-36
-35
-35
-37
-38
-36
-36
-36
-36
-35
-35
-36
-37
-36
-36
-36
-36
-34
-34
-35
-35
-34
-34
-34
-34
-34
-34
-35
-35
-33
-33
-33
-33
-33
-33
-34
-35
-33
-34
-33
-32
-32
-32
-33
-33
-32
-32
-33
-32
-31
-31
-32
-32
-32
-32
-31
-31
-30
-30
-31
-31
-31
-31
-30
-30
-29
-29
-31
-31
-30
-30
-30
-29
-29
-29
-29
-29
-28
-28
-29
-28
-29
-29
-29
-29
-28
-29
-28
-28
-27
-27
-29
-29
-27
-27
-27
-26
-26
-26
-28
-27
-28
-28
-28
-28
-25
-25
-26
-27
-26
-26
-27
-26
-25
-25
-25
-25
-25
-25
-25
-25
-25
-25
-25
-25
-25
-25
-25
-25
-24
-24
-25
-25
-25
-24
-24
-24
-24
-25
-25
-25
-24
-24
-23
-23
-23
-23
-24
-24
-23
-23
-23
-22
-22
-22
-25
-25
-24
-24
-22
-22
-21
-21
-22
-22
-22
-22
-22
-22
-21
-21
-21
-21
-22
-22
-22
-22
-21
-21
-22
-22
-21
-21
-21
-20
-21
-21
-21
-21
-21
-20
-20
-20
-20
-20
-21
-21
-20
-20
-20
-20
-19
-19
-20
-20
-19
-19
-20
-19
-18
-18
-20
-20
-19
-19
-18
-18
-17
-17
-20
-20
-19
-19
-19
-18
-17
-17
-19
-19
-18
-18
-18
-18
-17
-17
-17
-17
-18
-18
-18
-18
-17
-17
-18
-18
-17
-17
-18
-18
-17
-17
-18
-17
-17
-16
-16
-16
-16
-17
-18
-18
-17
-16
-16
-16
-16
-16
-17
-17
-16
-17
-16
-15
-14
-14
-16
-16
-16
-16
-16
-15
-14
-14
-15
-15
-16
-16
-16
-16
-15
-15
-14
-14
-14
-14
-15
-15
-14
-14
-15
-15
-14
-14
-15
-15
-14
-15
-16
-15
-14
-14
-14
-14
-13
-13
-15
-15
-14
-14
-14
-14
-13
-13
-14
-14
-14
-14
-14
-14
-13
-13
-14
-14
-13
-13
-14
-13
-13
-13
-13
-13
-13
-13
-13
-13
-13
-13
-13
-13
-12
-12
-13
-13
-12
-12
-13
-13
-12
-12
-13
-12
-12
-12
-13
-13
-12
-12
-12
-12
-12
-13
-13
-13
-13
-12
-12
-12
-11
-11
-12
-12
-11
-11
-12
-12
-10
-10
-11
-11
-11
-11
-12
-12
-10
-10
-11
-11
-11
-11
-11
-10
-10
-10
-10
-10
-10
-11
-10
-10
-11
-11
-11
-11
-11
-11
-10
-9
-10
-10
-11
-11
-10
-10
-10
-9
-9
-9
-10
-10
-10
-10
-10
-10
-9
-9
-11
-10
-9
-9
-10
-9
-9
-9
-11
-9
-10
-11
-10
-9
-9
-9
-10
-11
-11
-10
-10
-10
-9
-9
-10
-10
-10
-10
-10
-9
-9
-9
-9
-9
-9
-9
-10
-10
-9
-9
-10
-10
-8
-8
-9
-9
-9
-9
-10
-10
-9
-9
-10
-9
-8
-9
-9
-9
-9
-8
-9
-8
-8
-9
-9
-9
-9
-9
-9
-9
-8
-8
-9
-9
-8
-9
-9
-9
-9
-9
-9
-9
-8
-8
-8
-8
-8
-8
-9
-9
-9
-8
-7
-7
-7
-7
-9
-9
-8
-8
-8
-7
-7
-7
-9
-9
-8
-8
-8
-7
-7
-7
-8
-7
-8
-8
-8
-8
-7
-7
-8
-8
-8
-8
-7
-7
-7
-7
-9
-9
-8
-8
-7
-7
-6
-6
-8
-8
-8
-8
-7
-7
-6
-6
-7
-7
-8
-8
-8
-7
-7
-7
-7
-7
-7
-7
-7
-7
-7
-7
-8
-8
-6
-6
-7
-6
-7
-7
-8
-9
-8
-8
-7
-6
-5
-5
-8
-8
-8
-8
-8
-7
-6
-6
-7
-7
-8
-8
-7
-7
-6
-6
-7
-7
-6
-6
-8
-8
-7
-7
-7
-7
-5
-5
-6
-6
-7
-7
-8
-8
-8
-7
-6
-6
-6
-6
-8
-8
-8
-8
-7
-7
-6
-6
-7
-7
-7
-7
-7
-7
-6
-6
-7
-7
-7
-8
-6
-6
-6
-6
-7
-7
-7
-7
-7
-6
-6
-6
-8
-9
-8
-8
-7
-7
-6
-6
-7
-7
-7
-7
-7
-6
-5
-5
-7
-7
-7
-6
-7
-7
-7
-7
-7
-7
-7
-7
-7
-6
-6
-5
-8
-8
-7
-7
-7
-6
-6
-6
-7
-7
-7
-8
-8
-7
-6
-5
-7
-7
-7
-8
-7
-7
-6
-6
-7
-7
-7
-7
-7
-7
-6
-6
-7
-7
-7
-7
-6
-6
-6
-6
-7
-7
-7
-7
-6
-6
-6
-6
-7
-7
-7
-7
-7
-6
-6
-6
-7
-7
-6
-6
-6
-6
-5
-5
-7
-7
-7
-7
-6
-5
-5
-5
-6
-6
-7
-6
-6
-6
-5
-5
-6
-6
-6
-6
-6
-6
-5
-5
-6
-6
-6
-6
-7
-7
-5
-5
-7
-7
-6
-6
-6
-6
-5
-5
-7
-7
-6
-6
-6
-5
-5
-5
-7
-7
-6
-6
-7
-6
-5
-5
-6
-6
-6
-6
-7
-6
-5
-5
-6
-7
-6
-6
-6
-6
-5
-5
-6
-6
-6
-6
-6
-6
-6
-6
-6
-6
-5
-5
-5
-5
-6
-6
-7
-7
-5
-5
-5
-4
-5
-5
-7
-7
-6
-6
-6
-5
-5
-4
-5
-5
-6
-6
-6
-6
-5
-5
-6
-6
-6
-6
-6
-6
-5
-5
-6
-6
-5
-5
-6
-5
-5
-5
-7
-7
-6
-6
-5
-5
-5
-5
-6
-6
-5
-5
-6
-5
-5
-5
-6
-6
-6
-7
-6
-5
-4
-4
-6
-6
-6
-6
-6
-5
-5
-5
-6
-6
-5
-5
-6
-5
-5
-5
-6
-6
-5
-5
-6
-5
-4
-4
-5
-5
-6
-6
-6
-6
-5
-5
-5
-5
-4
-4
-6
-7
-6
-6
-6
-6
-6
-6
-5
-5
-5
-5
-7
-7
-7
-6
-5
-4
-4
-4
-6
-7
-6
-6
-6
-6
-4
-4
-6
-6
-6
-7
-6
-6
-5
-5
-6
-6
-5
-6
-6
-6
-6
-6
-5
-5
-5
-5
-5
-4
-5
-5
-7
-7
-5
-5
-5
-4
-5
-5
-7
-7
-5
-5
-6
-5
-4
-3
-5
-5
-6
-6
-6
-6
-5
-5
-6
-6
-6
-6
-6
-6
-5
-5
-5
-5
-5
-5
-5
-4
-5
-5
-6
-6
-5
-4
-4
-4
-4
-4
-6
-6
-6
-6
-5
-4
-4
-4
-6
-6
-5
-6
-5
-5
-4
-4
-5
-5
-5
-4
-5
-5
-5
-5
-5
-5
-4
-4
-5
-5
-4
-4
-5
-5
-5
-4
-5
-5
-4
-4
-5
-5
-5
-4
-5
-4
-4
-4
-6
-6
-5
-4
-5
-5
-4
-4
-5
-5
-6
-6
-5
-5
-4
-3
-5
-5
-4
-4
-5
-5
-5
-5
-5
-5
-4
-4
-5
-5
-5
-5
-5
-5
-5
-4
-4
-4
-3
-3
-5
-5
-5
-5
-5
-4
-4
-3
-5
-5
-6
-7
-5
-4
-4
-4
-5
-5
-6
-6
-5
-5
-5
-5
-5
-5
-5
-4
-5
-4
-5
-5
-5
-5
-6
-6
-4
-4
-4
-4
-6
-5
-5
-5
-5
-5
-3
-3
-6
-6
-5
-5
-5
-5
-4
-5
-5
-5
-6
-6
-5
-4
-4
-4
-5
-5
-4
-4
-6
-6
-4
-4
-5
-5
-4
-4
-5
-4
-5
-5
-5
-5
-5
-6
-5
-4
-3
-3
-6
-6
-6
-6
-4
-4
-4
-4
-6
-6
-5
-4
-5
-5
-4
-3
-5
-5
-4
-4
-5
-5
-5
-5
-5
-5
-5
-6
-6
-5
-4
-4
-5
-5
-5
-5
-4
-4
-4
-4
-5
-5
-5
-5
-5
-4
-5
-5
-6
-5
-5
-6
-4
-4
-3
-3
-6
-6
-6
-6
-5
-5
-3
-3
-5
-5
-4
-4
-5
-5
-4
-4
-5
-5
-4
-4
-5
-5
-5
-5
-6
-5
-5
-6
-5
-4
-4
-4
-5
-5
-6
-6
-5
-4
-5
-5
-5
-5
-5
-5
-5
-5
-4
-3
-5
-5
-5
-4
-5
-5
-4
-4
-5
-5
-5
-5
-4
-4
-4
-4
-5
-5
-4
-4
-5
-4
-3
-3
-5
-5
-5
-6
-5
-5
-4
-4
-5
-5
-5
-6
-4
-4
-4
-4
-5
-5
-4
-4
-4
-4
-4
-4
-5
-5
-4
-4
-4
-4
-4
-4
-5
-5
-5
-6
-4
-4
-5
-5
-6
-6
-5
-4
-4
-4
-3
-3
-5
-5
-4
-4
-4
-4
-3
-3
-5
-5
-4
-4
-5
-5
-3
-3
-5
-5
-4
-4
-5
-5
-3
-3
-4
-4
-4
-4
-4
-4
-5
-5
-5
-5
-4
-4
-4
-4
-3
-3
-5
-5
-4
-4
-4
-4
-3
-3
-5
-5
-4
-4
-4
-4
-3
-3
-5
-5
-4
-4
-5
-4
-4
-3
-5
-6
-5
-5
-4
-4
-3
-3
-5
-5
-5
-5
-5
-4
-4
-3
-5
-5
-3
-3
-4
-4
-5
-5
-5
-5
-4
-3
-4
-4
-4
-4
-6
-5
-5
-4
-4
-4
-3
-3
-5
-5
-5
-4
-5
-4
-3
-3
-5
-5
-4
-4
-5
-5
-3
-3
-5
-5
-4
-4
-5
-5
-5
-5
-5
-5
-4
-4
-4
-4
-4
-4
-5
-5
-5
-6
-5
-4
-4
-4
-5
-5
-5
-4
-4
-4
-3
-3
-5
-5
-5
-5
-5
-4
-4
-3
-4
-5
-6
-6
-5
-5
-3
-3
-5
-5
-4
-4
-5
-5
-5
-5
-5
-5
-4
-4
-4
-4
-4
-3
-5
-5
-5
-6
-4
-4
-4
-3
-5
-5
-5
-4
-5
-5
-5
-5
-5
-5
-4
-4
-4
-4
-4
-3
-5
-5
-4
-4
-4
-4
-3
-3
-5
-5
-5
-5
-4
-4
-3
-3
-5
-5
-4
-4
-4
-4
-3
-3
-5
-5
-4
-5
-5
-5
-4
-3
-4
-4
-3
-3
-3
-3
-1
-1
